{
	"name": "Python 3",
	"dockerComposeFile": "docker-compose.yml",
	"service": "app",
	"workspaceFolder": "/workspace",
	// Set *default* container specific settings.json values on container create.
	"settings": {
		"terminal.integrated.profiles.linux": {
			"bash": {
				"path": "/bin/bash",
				"args": []
			}
		},
		"terminal.integrated.defaultProfile.linux": "bash",
		"python.pythonPath": "/usr/local/bin/python",
		// linting - pylint
		"python.linting.enabled": true,
		"python.linting.lintOnSave": true,
		"python.linting.pylintEnabled": true,
		"python.linting.pylintPath": "/usr/local/bin/pylint",
		// autocompletion - Jedi
		"python.jediEnabled": true,
		"python.languageServer": "Jedi",
		// formatting - black
		"editor.formatOnSave": true,
		"python.formatting.provider": "black",
		// testing - pytest
		"python.testing.unittestEnabled": false,
		"python.testing.nosetestsEnabled": false,
		"python.testing.pytestEnabled": true,
		"python.testing.pytestPath": "py.test",
		"python.testing.pytestArgs": [
			"${workspaceFolder}/libraries",
			"-vv",
			"--cov=${workspaceFolder}/libraries",
			"--cov-report=html:${workspaceFolder}/docs/htmlcov",
			"--cov-branch"
		],
		"restructuredtext.confPath": "${workspaceFolder}/docs",
	},
	// Add the IDs of extensions you want installed when the container is created.
	"extensions": [
		"ms-python.python"
	],
}